Activity 5 Results – EC327 Game Theory
…
data <- data %>%
  group_by(round) %>%
  mutate(num_firms = sum(!is.na(quantity))) %>%
  ungroup() %>%
  # standardize quantity by `a` and `b` of each round
  mutate(
    Q_mp = a/(2*b), # monopolist's quantity
    # equal split of monopoly quantity across all firms
    q_mp = Q_mp / num_firms,
    # divide actual quantities by cooperative quantities
    q_adj = quantity / q_mp
  ) 
data

# A tibble: 90 × 12
   group round quantity     a     b     Q     P    pi num_firms  Q_mp  q_mp
   <fct> <fct>    <dbl> <dbl> <dbl> <dbl> <dbl> <dbl>     <int> <dbl> <dbl>
 1 1     1          100   162   1.5   631     0     0        10    54   5.4
 2 2     1          100   162   1.5   631     0     0        10    54   5.4
 3 3     1           12   162   1.5   631     0     0        10    54   5.4
 4 4     1           75   162   1.5   631     0     0        10    54   5.4
 5 5     1           43   162   1.5   631     0     0        10    54   5.4
 6 6     1            3   162   1.5   631     0     0        10    54   5.4
 7 8     1          105   162   1.5   631     0     0        10    54   5.4
 8 9     1          100   162   1.5   631     0     0        10    54   5.4
 9 10    1           48   162   1.5   631     0     0        10    54   5.4
10 11    1           45   162   1.5   631     0     0        10    54   5.4
# ℹ 80 more rows
# ℹ 1 more variable: q_adj <dbl>
…
